<?xml version="1.0" encoding="UTF-8"?>
<svg height="128px" viewBox="0 0 128 128" width="128px" xmlns="http://www.w3.org/2000/svg" xmlns:xlink="http://www.w3.org/1999/xlink">
    <linearGradient id="a" gradientTransform="matrix(0.232143 0 0 0.328947 -8.56657 263.826935)" gradientUnits="userSpaceOnUse" x1="88.595886" x2="536.595886" y1="-449.394012" y2="-449.394012">
        <stop offset="0" stop-color="#77767b"/>
        <stop offset="0.0384615" stop-color="#c0bfbc"/>
        <stop offset="0.0768555" stop-color="#9a9996"/>
        <stop offset="0.923077" stop-color="#9a9996"/>
        <stop offset="0.961538" stop-color="#c0bfbc"/>
        <stop offset="1" stop-color="#77767b"/>
    </linearGradient>
    <clipPath id="b">
        <rect height="128" width="128"/>
    </clipPath>
    <clipPath id="c">
        <rect height="128" width="128"/>
    </clipPath>
    <filter id="d" height="100%" width="100%" x="0%" y="0%">
        <feColorMatrix in="SourceGraphic" type="matrix" values="0 0 0 0 1 0 0 0 0 1 0 0 0 0 1 0 0 0 1 0"/>
    </filter>
    <mask id="e">
        <g clip-path="url(#c)" filter="url(#d)">
            <g clip-path="url(#b)">
                <path d="m 20 16 h 88 c 4.417969 0 8 3.582031 8 8 v 84 c 0 4.417969 -3.582031 8 -8 8 h -88 c -4.417969 0 -8 -3.582031 -8 -8 v -84 c 0 -4.417969 3.582031 -8 8 -8 z m 0 0" fill="url(#a)"/>
                <path d="m 20 12 h 88 c 4.417969 0 8 3.582031 8 8 v 84 c 0 4.417969 -3.582031 8 -8 8 h -88 c -4.417969 0 -8 -3.582031 -8 -8 v -84 c 0 -4.417969 3.582031 -8 8 -8 z m 0 0"/>
                <path d="m 22 18 h 84 c 2.210938 0 4 1.789062 4 4 v 80 c 0 2.210938 -1.789062 4 -4 4 h -84 c -2.210938 0 -4 -1.789062 -4 -4 v -80 c 0 -2.210938 1.789062 -4 4 -4 z m 0 0" fill="#f5c211"/>
                <path d="m 38 85 h 24 c 2.210938 0 4 1.433594 4 3.199219 v 1.601562 c 0 1.765625 -1.789062 3.199219 -4 3.199219 h -24 c -2.210938 0 -4 -1.433594 -4 -3.199219 v -1.601562 c 0 -1.765625 1.789062 -3.199219 4 -3.199219 z m 0 0"/>
                <path d="m 34 85 h 32 v 4 h -32 z m 0 0"/>
                <path d="m 30 53 c 2.210938 0 4 1.789062 4 4 v 24 c 0 2.210938 -1.789062 4 -4 4 s -4 -1.789062 -4 -4 v -24 c 0 -2.210938 1.789062 -4 4 -4 z m 0 0"/>
                <path d="m 30 53 h 4 v 32 h -4 z m 0 0"/>
                <path d="m 70 85 h 32 v 8 h -32 z m 0 0"/>
                <path d="m 94 81 h 8 v 4 h -8 z m 0 0"/>
                <path d="m 74 53 h 24 c 2.210938 0 4 1.789062 4 4 v 20 c 0 2.210938 -1.789062 4 -4 4 h -24 c -2.210938 0 -4 -1.789062 -4 -4 v -20 c 0 -2.210938 1.789062 -4 4 -4 z m 0 0"/>
                <path d="m 70 75 h 32 v 6 h -32 z m 0 0"/>
                <path d="m 92.910156 53 h 5.089844 l -22.910156 28 h -5.089844 z m 0 0" fill="#f5c211"/>
                <path d="m 79.023438 39.191406 c 2.164062 -3.742187 7.042968 -5.074218 10.894531 -2.972656 c 3.851562 2.101562 5.21875 6.84375 3.058593 10.585938 c -2.164062 3.746093 -7.039062 5.078124 -10.890624 2.976562 c -3.851563 -2.101562 -5.222657 -6.839844 -3.0625 -10.585938"/>
                <path d="m 78 39 h 16 v 4 h -16 z m 0 0"/>
                <path d="m 78 39 h 4 l -4 4 h -4 z m 0 0"/>
                <path d="m 78 37 h 16 v 2 h -16 z m 0 0" fill="#f5c211"/>
                <path d="m 78 31 h 16 v 6 h -16 z m 0 0"/>
                <path d="m 72 31 h 6 l 6 6 h -6 z m 0 0"/>
            </g>
        </g>
    </mask>
    <mask id="f">
        <g filter="url(#d)">
            <rect fill-opacity="0.8" height="128" width="128"/>
        </g>
    </mask>
    <linearGradient id="g" gradientTransform="matrix(0 0.37 -0.98462 0 295.38501 -30.360001)" gradientUnits="userSpaceOnUse" x1="300" x2="428" y1="235" y2="235">
        <stop offset="0" stop-color="#f9f06b"/>
        <stop offset="1" stop-color="#f5c211"/>
    </linearGradient>
    <clipPath id="h">
        <rect height="128" width="128"/>
    </clipPath>
    <clipPath id="i">
        <rect height="128" width="128"/>
    </clipPath>
    <path d="m 20 16 h 88 c 4.417969 0 8 3.582031 8 8 v 84 c 0 4.417969 -3.582031 8 -8 8 h -88 c -4.417969 0 -8 -3.582031 -8 -8 v -84 c 0 -4.417969 3.582031 -8 8 -8 z m 0 0" fill="url(#a)"/>
    <path d="m 20 12 h 88 c 4.417969 0 8 3.582031 8 8 v 84 c 0 4.417969 -3.582031 8 -8 8 h -88 c -4.417969 0 -8 -3.582031 -8 -8 v -84 c 0 -4.417969 3.582031 -8 8 -8 z m 0 0"/>
    <path d="m 22 18 h 84 c 2.210938 0 4 1.789062 4 4 v 80 c 0 2.210938 -1.789062 4 -4 4 h -84 c -2.210938 0 -4 -1.789062 -4 -4 v -80 c 0 -2.210938 1.789062 -4 4 -4 z m 0 0" fill="#f5c211"/>
    <path d="m 38 85 h 24 c 2.210938 0 4 1.433594 4 3.199219 v 1.601562 c 0 1.765625 -1.789062 3.199219 -4 3.199219 h -24 c -2.210938 0 -4 -1.433594 -4 -3.199219 v -1.601562 c 0 -1.765625 1.789062 -3.199219 4 -3.199219 z m 0 0"/>
    <path d="m 34 85 h 32 v 4 h -32 z m 0 0"/>
    <path d="m 30 53 c 2.210938 0 4 1.789062 4 4 v 24 c 0 2.210938 -1.789062 4 -4 4 s -4 -1.789062 -4 -4 v -24 c 0 -2.210938 1.789062 -4 4 -4 z m 0 0"/>
    <path d="m 30 53 h 4 v 32 h -4 z m 0 0"/>
    <path d="m 70 85 h 32 v 8 h -32 z m 0 0"/>
    <path d="m 94 81 h 8 v 4 h -8 z m 0 0"/>
    <path d="m 74 53 h 24 c 2.210938 0 4 1.789062 4 4 v 20 c 0 2.210938 -1.789062 4 -4 4 h -24 c -2.210938 0 -4 -1.789062 -4 -4 v -20 c 0 -2.210938 1.789062 -4 4 -4 z m 0 0"/>
    <path d="m 70 75 h 32 v 6 h -32 z m 0 0"/>
    <path d="m 92.910156 53 h 5.089844 l -22.910156 28 h -5.089844 z m 0 0" fill="#f5c211"/>
    <path d="m 79.023438 39.191406 c 2.164062 -3.742187 7.042968 -5.074218 10.894531 -2.972656 c 3.851562 2.101562 5.21875 6.84375 3.058593 10.585938 c -2.164062 3.746093 -7.039062 5.078124 -10.890624 2.976562 c -3.851563 -2.101562 -5.222657 -6.839844 -3.0625 -10.585938"/>
    <path d="m 78 39 h 16 v 4 h -16 z m 0 0"/>
    <path d="m 78 39 h 4 l -4 4 h -4 z m 0 0"/>
    <path d="m 78 37 h 16 v 2 h -16 z m 0 0" fill="#f5c211"/>
    <path d="m 78 31 h 16 v 6 h -16 z m 0 0"/>
    <path d="m 72 31 h 6 l 6 6 h -6 z m 0 0"/>
    <g clip-path="url(#i)" mask="url(#e)">
        <g clip-path="url(#h)" mask="url(#f)">
            <path d="m 128 80.640625 v 47.359375 h -128 v -47.359375 z m 0 0" fill="url(#g)"/>
            <path d="m 13.308594 80.640625 l 47.355468 47.359375 h 21.214844 l -47.359375 -47.359375 z m 42.421875 0 l 47.363281 47.359375 h 21.214844 l -47.363282 -47.359375 z m 42.429687 0 l 29.839844 29.839844 v -21.210938 l -8.628906 -8.628906 z m -98.160156 7.90625 v 21.214844 l 18.238281 18.238281 h 21.214844 z m 0 0"/>
        </g>
    </g>
</svg>
